[
    {
        "brand":"realme",
        "project":"21695",
        "name":"default",
        "product":"RMX3461",
        "device":"RE54BFL1",
        "model":"RMX3461",
	    "first_api_level":"30",
		"manufacturer":"realme",
        "base_oses": [
            {
              "13": "realme/RMX3461/RE54BFL1:13/TP1A.220905.001/R.e9a1c9-1-17473:user/release-keys"
            }
        ]
    },
	{
        "brand":"realme",
        "project":"21695",
        "name":"tr",
        "product":"RMX3461TR",
        "device":"RE54BFL1",
        "model":"RMX3461",
	    "first_api_level":"30",
		"manufacturer":"realme"
    },
	{
        "brand":"realme",
        "project":"21695",
        "name":"ru",
        "product":"RMX3461RU",
        "device":"RE54BFL1",
        "model":"RMX3461",
	    "first_api_level":"30",
		"manufacturer":"realme"
    },
	{
        "brand":"realme",
        "project":"21695",
        "name":"t2",
        "product":"RMX3461T2",
        "device":"RE54BFL1",
        "model":"RMX3461",
	    "first_api_level":"30",
		"manufacturer":"realme"
    },
	{
        "brand":"realme",
        "project":"21695",
        "name":"eea",
        "product":"RMX3461EEA",
        "device":"RE54BFL1",
        "model":"RMX3461",
	    "first_api_level":"30",
		"manufacturer":"realme"
    }

]
